<?xml version="1.0" encoding="utf-8"?>
<!-- Generator: Adobe Illustrator 24.1.0, SVG Export Plug-In . SVG Version: 6.00 Build 0)  -->
<svg version="1.1" id="Livello_1" xmlns="http://www.w3.org/2000/svg" xmlns:xlink="http://www.w3.org/1999/xlink" x="0px" y="0px"
	 viewBox="0 0 300 300" style="enable-background:new 0 0 300 300;" xml:space="preserve">
<style type="text/css">
	.st0{fill:#2E2B28;stroke:#2E2B28;stroke-miterlimit:10;}
	.st1{fill:#2E2B28;}
</style>
<g id="Raggruppa_52" transform="translate(271.29 0.29)">
	<path id="Tracciato_67" class="st1" d="M-115.4,210.5c-0.4,0-0.7-0.1-1-0.1h-56.9c-1.8,0-3.6,0-5.4,0c-2.9,0-5.6-1-7.8-2.9
		c-2-1.7-3.4-4-3.9-6.5c-0.2-1.4-0.3-2.7-0.2-4.1c-0.1-1.4-0.1-2.7-0.1-4.1c0-0.9,0.1-1.9,0.1-2.8c0-2.5,0-4.9,0-7.4v-52.9
		c0-1.9,0-3.9,0-5.8c-0.1-3.3,1.3-6.4,3.7-8.7c1.4-1.4,3.2-2.4,5.1-2.9c0.8-0.2,1.6-0.3,2.4-0.3c14.2,0,28.4,0,42.7,0
		c0.4,0,0.8,0,1.2,0.1c0,0.4,0.1,0.7,0.1,1c0,2.2,0,4.5,0,6.7c0,1.2-0.1,1.3-1.3,1.3h-43.8c-0.3,0-0.5,0-0.9,0.1
		c0,26.7,0,53.4,0,80.1h66.4c0.2-0.4,0.4-0.8,0.6-1.2c1.6-3.3,4.4-5.7,7.9-6.8c3.9-1.3,8.1-0.6,11.3,1.9c2.4,1.7,4.1,4.2,4.9,7
		c0.5,1.7,0.6,3.5,0.4,5.2c-0.3,3.1-1.7,6-4,8.1c-1.7,1.8-4,3-6.4,3.4c-4,0.8-8.1-0.3-11.2-3C-113.2,214.4-114.5,212.5-115.4,210.5z
		"/>
	<path id="Tracciato_68" class="st1" d="M-89.7,132.6c-4.4,0-8.8,0-13.2,0c-0.6,0-1.2,0.2-1.7,0.5c-3.6,2.5-7.1,5-10.7,7.5
		c-1.5,1-3,2-4.5,3c-0.8,0.6-1.9,0.7-2.8,0.2c-1-0.5-1.7-1.5-1.7-2.6c0-3.2,0-6.5,0-9.7c0-2.5,0-5,0-7.5c0-0.7-0.2-1.3-0.6-1.9
		c-0.7-0.9-1.3-1.8-1.8-2.7c-1.7-3.1-2.8-6.4-3.2-9.8c-0.3-2.4-0.2-4.8,0.1-7.2c0.2-1.5,0.6-2.9,1.1-4.3c0.7-2.2,1.6-4.2,2.9-6.1
		c3.4-5.1,8.4-8.8,14.3-10.6c2.4-0.7,5-1.1,7.5-1.1h17.2c2.2,0,4.3,0.1,6.5,0c2.4-0.1,4.7,0,7,0.5c1.9,0.4,3.8,1,5.6,1.7
		c2.2,0.9,4.3,2.1,6.1,3.7c1.8,1.4,3.3,3,4.6,4.9c1.1,1.7,2.1,3.4,3,5.2c0.6,1.3,1,2.7,1.3,4.1c0.3,1.4,0.3,2.9,0.7,4.2
		c0.3,1.8,0.2,3.7-0.1,5.5c-0.2,2.2-0.8,4.4-1.8,6.4c-1.3,3.2-3.2,6-5.6,8.5c-2.8,2.8-6.2,4.9-10,6.2c-3,1.1-6.1,1.6-9.2,1.5
		C-82.4,132.6-86.1,132.6-89.7,132.6L-89.7,132.6z M-91.2,123.5L-91.2,123.5c4.4,0,8.8,0.1,13.3,0c1.6,0,3.2-0.2,4.8-0.7
		c4.6-1.3,8.4-4.4,10.6-8.7c1-1.9,1.6-4.1,1.8-6.3c0.2-2,0-4-0.5-6c-0.7-2.4-1.9-4.7-3.5-6.6c-2.1-2.4-4.9-4.3-8-5.2
		c-1.8-0.5-3.7-0.7-5.6-0.7c-2.1-0.1-4.2,0-6.3,0h-5.7c-2.3,0-4.7,0-7,0c-0.9,0-1.8,0.1-2.6,0.1c-1.3,0-2.5-0.2-3.8-0.1
		c-1.4,0-2.8,0.2-4.2,0.5c-3.1,0.8-5.9,2.5-8.1,4.9c-3.2,3.3-4.9,7.8-4.7,12.4c0.1,1,0.3,2.1,0.5,3.1c0.3,2,1.1,3.9,2.2,5.5
		c1.3,2.1,3,3.8,5.1,5.1c2.3,1.6,5,2.5,7.8,2.6C-100.5,123.6-95.8,123.5-91.2,123.5L-91.2,123.5z"/>
	<path id="Tracciato_69" class="st1" d="M-75.3,138h8.9c0.1,0.2,0.1,0.5,0.2,0.8c0,1.7,0,3.3,0,5c0,0.7-0.1,1.4-0.1,2.1
		c0,2.7,0,5.4,0,8v40.9c0,1.6,0,3.1,0,4.7c-0.1,3.2-1.5,6.1-4,8.1c-0.8,0.7-1.6,1.2-2.5,1.7c-1.5,0.8-3.3,1.2-5,1.2
		c-1.7,0-3.3,0-5,0c-0.3,0-0.6,0-1-0.1c-0.1-3,0-5.9-0.1-9h8.4c0-0.4,0.1-0.7,0.1-0.9c0-15.6,0-31.2,0-46.8c0-4.9,0-9.7,0-14.6
		C-75.4,138.8-75.3,138.5-75.3,138z"/>
	<g id="Raggruppa_51" transform="translate(3.642 11.216)">
		<path id="Tracciato_70" class="st1" d="M-151.8,152.7c2.2,0,4.5,0,6.7,0c4-0.2,7.9,1.3,10.7,4.1c1.9,1.8,3.4,4,4.5,6.4
			c1.1,2.4,1.9,4.9,2.4,7.5c0.5,2.5,0.7,5,0.8,7.5c0.1,1.9-0.9,3.7-2.7,4.5c-3.1,1.8-6.4,3.1-9.9,3.8c-5.3,1.1-10.8,1.5-16.2,1.2
			c-4.9-0.2-9.8-1.2-14.5-2.9c-2.2-0.8-4.3-1.9-6.2-3.3c-0.9-0.6-1.4-1.7-1.4-2.7c-0.1-2.3,0.1-4.6,0.6-6.9
			c0.6-3.6,1.9-7.1,3.7-10.2c2-3.8,5.4-6.8,9.5-8.2c1.6-0.5,3.3-0.7,4.9-0.7C-156.4,152.7-154.1,152.7-151.8,152.7z M-152.1,182.2
			c4.7,0.1,9.4-0.5,13.9-1.6c2.3-0.5,4.6-1.6,6.5-3c0.4-0.2,0.6-0.6,0.5-1.1c-0.1-1.1-0.2-2.2-0.4-3.3c-0.5-3.1-1.5-6.1-3-8.8
			c-1.9-4-6-6.5-10.4-6.4c-4.5,0-9,0-13.4,0c-3.8-0.1-7.5,1.8-9.6,5c-1.8,2.7-3.1,5.7-3.7,8.8c-0.3,1.4-0.5,2.8-0.7,4.2
			c-0.1,0.5,0,1,0.3,1.4c0.4,0.4,0.9,0.8,1.4,1c2.7,1.5,5.6,2.4,8.7,2.9C-158.6,181.9-155.4,182.2-152.1,182.2L-152.1,182.2z"/>
		<path id="Tracciato_71" class="st1" d="M-151.9,151c-8.3,0-15-6.7-15.1-14.9c0-8.3,6.7-15,14.9-15.1c8.3,0,15,6.7,15.1,14.9
			c0,0,0,0.1,0,0.1c0,8.2-6.6,14.9-14.8,15C-151.8,151-151.8,151-151.9,151z M-161.7,136c0.1,5.3,4.4,9.5,9.7,9.4c0,0,0,0,0,0
			c5.2,0.1,9.5-4,9.6-9.2c0.1-5.2-4-9.5-9.2-9.6c-0.1,0-0.3,0-0.4,0C-157.3,126.5-161.6,130.7-161.7,136L-161.7,136z"/>
	</g>
</g>
</svg>
